<svg xmlns="http://www.w3.org/2000/svg" width="11" height="14" viewBox="0 0 11 14">
    <g fill="#FFF" fill-rule="evenodd">
        <path d="M7.3 6.4V0H3.7v6.4H1l4.5 4.8L10 6.4H7.3zM0 13h11v1H0z"/>
    </g>
</svg>
