<svg xmlns="http://www.w3.org/2000/svg" width="15" height="12" viewBox="0 0 15 12">
    <path fill="#CDCDCD" fill-rule="evenodd" d="M15 1v10a1 1 0 0 1-1 1H1a1 1 0 0 1-1-1V7.617h1c1.105 0 1.606-.813 1.606-1.617S2.105 4.425 1 4.425H0V1a1 1 0 0 1 1-1h13a1 1 0 0 1 1 1zm-13.48.5l-.022 1.456C3.24 3.418 4.11 4.418 4.11 5.958c0 1.54-.87 2.578-2.612 3.117v1.409h12.016l.022-8.983H1.521z"/>
</svg>
