<svg xmlns="http://www.w3.org/2000/svg" width="16" height="12" viewBox="0 0 16 12">
    <g fill="#263238" fill-rule="evenodd">
        <path d="M6 2h4v10H6zM12 4h4v8h-4zM0 0h4v12H0z"/>
    </g>
</svg>
